Warning message:
In dir.create("data") : 'data' already exists
Warning message:
In dir.create("optimization_results") :
  'optimization_results' already exists
[1] "Crypto list already exists..."
[1] "Crypto data already downloaded..."
[1] "bootstrapps already performed"
# A tibble: 928 × 5
   intercept   poly_1    poly_2      poly_3 mdl_sigma
       <dbl>    <dbl>     <dbl>       <dbl>     <dbl>
 1     1.11  -0.0648   0.00475  -0.0000972     0.0232
 2     0.932  0.00321 -0.000743  0.0000266     0.0118
 3     1.08  -0.0609   0.00406  -0.0000696     0.0465
 4     1.07   0.0101  -0.00360   0.0000968     0.0227
 5     1.16  -0.0451  -0.000367  0.0000580     0.0486
 6     1.04  -0.0442   0.00229  -0.0000393     0.0411
 7     0.930  0.0896  -0.00649   0.000133      0.165 
 8     1.12  -0.0160   0.000494  0.00000457    0.0418
 9     1.01   0.00980 -0.00105   0.0000167     0.0487
10     0.648  0.131   -0.00503   0.0000133     0.129 
# ℹ 918 more rows
…
